([('linux.exe',
   'H:\\Desktop\\mylogger\\build\\linux\\linux.exe',
   'EXECUTABLE'),
  ('linux.exe.manifest',
   'H:\\Desktop\\mylogger\\build\\linux\\linux.exe.manifest',
   'BINARY'),
  ('python27.dll',
   'Z:\\home\\abanoub\\.wine\\drive_c\\Python27\\python27.dll',
   'BINARY'),
  ('MSVCR90.dll',
   'Z:\\home\\abanoub\\.wine\\drive_c\\Python27\\MSVCR90.dll',
   'BINARY'),
  ('unicodedata',
   'Z:\\home\\abanoub\\.wine\\drive_c\\Python27\\DLLs\\unicodedata.pyd',
   'EXTENSION'),
  ('_hashlib',
   'Z:\\home\\abanoub\\.wine\\drive_c\\Python27\\DLLs\\_hashlib.pyd',
   'EXTENSION'),
  ('select',
   'Z:\\home\\abanoub\\.wine\\drive_c\\Python27\\DLLs\\select.pyd',
   'EXTENSION'),
  ('bz2',
   'Z:\\home\\abanoub\\.wine\\drive_c\\Python27\\DLLs\\bz2.pyd',
   'EXTENSION'),
  ('_ctypes',
   'Z:\\home\\abanoub\\.wine\\drive_c\\Python27\\DLLs\\_ctypes.pyd',
   'EXTENSION')],)
