('H:\\Desktop\\mylogger\\dist\\linux.exe',
 True,
 False,
 False,
 None,
 None,
 False,
 False,
 u'<?xml version="1.0" encoding="UTF-8" standalone="yes"?><assembly manifestVersion="1.0" xmlns="urn:schemas-microsoft-com:asm.v1"><assemblyIdentity name="linux" processorArchitecture="x86" type="win32" version="1.0.0.0"/><dependency><dependentAssembly><assemblyIdentity name="Microsoft.VC90.CRT" processorArchitecture="x86" publicKeyToken="1fc8b3b9a1e18e3b" type="win32" version="9.0.21022.8"/><compatibility xmlns="urn:schemas-microsoft-com:compatibility.v1"/></dependentAssembly></dependency><compatibility xmlns="urn:schemas-microsoft-com:compatibility.v1"><application><supportedOS Id="{1f676c76-80e1-4239-95bb-83d0f6d0da78}"/><supportedOS Id="{4a2f28e3-53b9-4441-ba9c-d69d4a4a6e38}"/><supportedOS Id="{e2011457-1546-43c5-a5fe-008deee3d3f0}"/><supportedOS Id="{35138b9a-5d96-4fbd-8e2d-a2440225f93a}"/><supportedOS Id="{8e0f7a12-bfb3-4fe8-b9a5-48fd50a15a9a}"/></application></compatibility></assembly>',
 True,
 'linux.pkg',
 [('PYZ-00.pyz', 'H:\\Desktop\\mylogger\\build\\linux\\PYZ-00.pyz', 'PYZ'),
  ('struct',
   'Z:\\home\\abanoub\\.wine\\drive_c\\Python27\\lib\\struct.pyc',
   'PYMODULE'),
  ('pyimod01_os_path',
   'Z:\\home\\abanoub\\.wine\\drive_c\\Python27\\lib\\site-packages\\PyInstaller\\loader\\pyimod01_os_path.pyc',
   'PYMODULE'),
  ('pyimod02_archive',
   'Z:\\home\\abanoub\\.wine\\drive_c\\Python27\\lib\\site-packages\\PyInstaller\\loader\\pyimod02_archive.pyc',
   'PYMODULE'),
  ('pyimod03_importers',
   'Z:\\home\\abanoub\\.wine\\drive_c\\Python27\\lib\\site-packages\\PyInstaller\\loader\\pyimod03_importers.pyc',
   'PYMODULE'),
  ('pyiboot01_bootstrap',
   'Z:\\home\\abanoub\\.wine\\drive_c\\Python27\\lib\\site-packages\\PyInstaller\\loader\\pyiboot01_bootstrap.py',
   'PYSOURCE'),
  ('linux', 'H:\\Desktop\\mylogger\\linux.py', 'PYSOURCE'),
  ('python27.dll',
   'Z:\\home\\abanoub\\.wine\\drive_c\\Python27\\python27.dll',
   'BINARY'),
  ('MSVCR90.dll',
   'Z:\\home\\abanoub\\.wine\\drive_c\\Python27\\MSVCR90.dll',
   'BINARY'),
  ('unicodedata',
   'Z:\\home\\abanoub\\.wine\\drive_c\\Python27\\DLLs\\unicodedata.pyd',
   'EXTENSION'),
  ('_hashlib',
   'Z:\\home\\abanoub\\.wine\\drive_c\\Python27\\DLLs\\_hashlib.pyd',
   'EXTENSION'),
  ('select',
   'Z:\\home\\abanoub\\.wine\\drive_c\\Python27\\DLLs\\select.pyd',
   'EXTENSION'),
  ('bz2',
   'Z:\\home\\abanoub\\.wine\\drive_c\\Python27\\DLLs\\bz2.pyd',
   'EXTENSION'),
  ('_ssl',
   'Z:\\home\\abanoub\\.wine\\drive_c\\Python27\\DLLs\\_ssl.pyd',
   'EXTENSION'),
  ('_socket',
   'Z:\\home\\abanoub\\.wine\\drive_c\\Python27\\DLLs\\_socket.pyd',
   'EXTENSION'),
  ('_ctypes',
   'Z:\\home\\abanoub\\.wine\\drive_c\\Python27\\DLLs\\_ctypes.pyd',
   'EXTENSION'),
  ('linux.exe.manifest',
   'H:\\Desktop\\mylogger\\build\\linux\\linux.exe.manifest',
   'BINARY'),
  ('pyi-windows-manifest-filename linux.exe.manifest', '', 'OPTION')],
 [],
 False,
 False,
 1579287390L,
 [('run.exe',
   'Z:\\home\\abanoub\\.wine\\drive_c\\Python27\\lib\\site-packages\\PyInstaller\\bootloader\\Windows-32bit\\run.exe',
   'EXECUTABLE')])
