('H:\\Desktop\\mylogger\\build\\linux\\PKG-00.pkg',
 {'BINARY': 1,
  'DATA': 1,
  'EXECUTABLE': 1,
  'EXTENSION': 1,
  'PYMODULE': 1,
  'PYSOURCE': 1,
  'PYZ': 0},
 [('PYZ-00.pyz', 'H:\\Desktop\\mylogger\\build\\linux\\PYZ-00.pyz', 'PYZ'),
  ('struct',
   'Z:\\home\\abanoub\\.wine\\drive_c\\Python27\\lib\\struct.pyc',
   'PYMODULE'),
  ('pyimod01_os_path',
   'Z:\\home\\abanoub\\.wine\\drive_c\\Python27\\lib\\site-packages\\PyInstaller\\loader\\pyimod01_os_path.pyc',
   'PYMODULE'),
  ('pyimod02_archive',
   'Z:\\home\\abanoub\\.wine\\drive_c\\Python27\\lib\\site-packages\\PyInstaller\\loader\\pyimod02_archive.pyc',
   'PYMODULE'),
  ('pyimod03_importers',
   'Z:\\home\\abanoub\\.wine\\drive_c\\Python27\\lib\\site-packages\\PyInstaller\\loader\\pyimod03_importers.pyc',
   'PYMODULE'),
  ('pyiboot01_bootstrap',
   'Z:\\home\\abanoub\\.wine\\drive_c\\Python27\\lib\\site-packages\\PyInstaller\\loader\\pyiboot01_bootstrap.py',
   'PYSOURCE'),
  ('linux', 'H:\\Desktop\\mylogger\\linux.py', 'PYSOURCE'),
  ('python27.dll',
   'Z:\\home\\abanoub\\.wine\\drive_c\\Python27\\python27.dll',
   'BINARY'),
  ('MSVCR90.dll',
   'Z:\\home\\abanoub\\.wine\\drive_c\\Python27\\MSVCR90.dll',
   'BINARY'),
  ('unicodedata',
   'Z:\\home\\abanoub\\.wine\\drive_c\\Python27\\DLLs\\unicodedata.pyd',
   'EXTENSION'),
  ('_hashlib',
   'Z:\\home\\abanoub\\.wine\\drive_c\\Python27\\DLLs\\_hashlib.pyd',
   'EXTENSION'),
  ('select',
   'Z:\\home\\abanoub\\.wine\\drive_c\\Python27\\DLLs\\select.pyd',
   'EXTENSION'),
  ('bz2',
   'Z:\\home\\abanoub\\.wine\\drive_c\\Python27\\DLLs\\bz2.pyd',
   'EXTENSION'),
  ('_ssl',
   'Z:\\home\\abanoub\\.wine\\drive_c\\Python27\\DLLs\\_ssl.pyd',
   'EXTENSION'),
  ('_socket',
   'Z:\\home\\abanoub\\.wine\\drive_c\\Python27\\DLLs\\_socket.pyd',
   'EXTENSION'),
  ('_ctypes',
   'Z:\\home\\abanoub\\.wine\\drive_c\\Python27\\DLLs\\_ctypes.pyd',
   'EXTENSION'),
  ('linux.exe.manifest',
   'H:\\Desktop\\mylogger\\build\\linux\\linux.exe.manifest',
   'BINARY'),
  ('pyi-windows-manifest-filename linux.exe.manifest', '', 'OPTION')],
 False,
 False,
 False,
 [])
