('H:\\Desktop\\mylogger\\build\\linux\\PYZ-00.pyz',
 [('codecs',
   'Z:\\home\\abanoub\\.wine\\drive_c\\Python27\\lib\\codecs.py',
   'PYMODULE'),
  ('encodings',
   'Z:\\home\\abanoub\\.wine\\drive_c\\Python27\\lib\\encodings\\__init__.py',
   'PYMODULE'),
  ('encodings.idna',
   'Z:\\home\\abanoub\\.wine\\drive_c\\Python27\\lib\\encodings\\idna.py',
   'PYMODULE'),
  ('re',
   'Z:\\home\\abanoub\\.wine\\drive_c\\Python27\\lib\\re.py',
   'PYMODULE'),
  ('sre_constants',
   'Z:\\home\\abanoub\\.wine\\drive_c\\Python27\\lib\\sre_constants.py',
   'PYMODULE'),
  ('sre',
   'Z:\\home\\abanoub\\.wine\\drive_c\\Python27\\lib\\sre.py',
   'PYMODULE'),
  ('warnings',
   'Z:\\home\\abanoub\\.wine\\drive_c\\Python27\\lib\\warnings.py',
   'PYMODULE'),
  ('types',
   'Z:\\home\\abanoub\\.wine\\drive_c\\Python27\\lib\\types.py',
   'PYMODULE'),
  ('linecache',
   'Z:\\home\\abanoub\\.wine\\drive_c\\Python27\\lib\\linecache.py',
   'PYMODULE'),
  ('os',
   'Z:\\home\\abanoub\\.wine\\drive_c\\Python27\\lib\\os.py',
   'PYMODULE'),
  ('subprocess',
   'Z:\\home\\abanoub\\.wine\\drive_c\\Python27\\lib\\subprocess.py',
   'PYMODULE'),
  ('pickle',
   'Z:\\home\\abanoub\\.wine\\drive_c\\Python27\\lib\\pickle.py',
   'PYMODULE'),
  ('doctest',
   'Z:\\home\\abanoub\\.wine\\drive_c\\Python27\\lib\\doctest.py',
   'PYMODULE'),
  ('collections',
   'Z:\\home\\abanoub\\.wine\\drive_c\\Python27\\lib\\collections.py',
   'PYMODULE'),
  ('dummy_thread',
   'Z:\\home\\abanoub\\.wine\\drive_c\\Python27\\lib\\dummy_thread.py',
   'PYMODULE'),
  ('heapq',
   'Z:\\home\\abanoub\\.wine\\drive_c\\Python27\\lib\\heapq.py',
   'PYMODULE'),
  ('keyword',
   'Z:\\home\\abanoub\\.wine\\drive_c\\Python27\\lib\\keyword.py',
   'PYMODULE'),
  ('_abcoll',
   'Z:\\home\\abanoub\\.wine\\drive_c\\Python27\\lib\\_abcoll.py',
   'PYMODULE'),
  ('abc',
   'Z:\\home\\abanoub\\.wine\\drive_c\\Python27\\lib\\abc.py',
   'PYMODULE'),
  ('_weakrefset',
   'Z:\\home\\abanoub\\.wine\\drive_c\\Python27\\lib\\_weakrefset.py',
   'PYMODULE'),
  ('tempfile',
   'Z:\\home\\abanoub\\.wine\\drive_c\\Python27\\lib\\tempfile.py',
   'PYMODULE'),
  ('random',
   'Z:\\home\\abanoub\\.wine\\drive_c\\Python27\\lib\\random.py',
   'PYMODULE'),
  ('_strptime',
   'Z:\\home\\abanoub\\.wine\\drive_c\\Python27\\lib\\_strptime.py',
   'PYMODULE'),
  ('calendar',
   'Z:\\home\\abanoub\\.wine\\drive_c\\Python27\\lib\\calendar.py',
   'PYMODULE'),
  ('optparse',
   'Z:\\home\\abanoub\\.wine\\drive_c\\Python27\\lib\\optparse.py',
   'PYMODULE'),
  ('gettext',
   'Z:\\home\\abanoub\\.wine\\drive_c\\Python27\\lib\\gettext.py',
   'PYMODULE'),
  ('textwrap',
   'Z:\\home\\abanoub\\.wine\\drive_c\\Python27\\lib\\textwrap.py',
   'PYMODULE'),
  ('locale',
   'Z:\\home\\abanoub\\.wine\\drive_c\\Python27\\lib\\locale.py',
   'PYMODULE'),
  ('functools',
   'Z:\\home\\abanoub\\.wine\\drive_c\\Python27\\lib\\functools.py',
   'PYMODULE'),
  ('hashlib',
   'Z:\\home\\abanoub\\.wine\\drive_c\\Python27\\lib\\hashlib.py',
   'PYMODULE'),
  ('logging',
   'Z:\\home\\abanoub\\.wine\\drive_c\\Python27\\lib\\logging\\__init__.py',
   'PYMODULE'),
  ('atexit',
   'Z:\\home\\abanoub\\.wine\\drive_c\\Python27\\lib\\atexit.py',
   'PYMODULE'),
  ('weakref',
   'Z:\\home\\abanoub\\.wine\\drive_c\\Python27\\lib\\weakref.py',
   'PYMODULE'),
  ('io',
   'Z:\\home\\abanoub\\.wine\\drive_c\\Python27\\lib\\io.py',
   'PYMODULE'),
  ('pdb',
   'Z:\\home\\abanoub\\.wine\\drive_c\\Python27\\lib\\pdb.py',
   'PYMODULE'),
  ('shlex',
   'Z:\\home\\abanoub\\.wine\\drive_c\\Python27\\lib\\shlex.py',
   'PYMODULE'),
  ('pprint',
   'Z:\\home\\abanoub\\.wine\\drive_c\\Python27\\lib\\pprint.py',
   'PYMODULE'),
  ('repr',
   'Z:\\home\\abanoub\\.wine\\drive_c\\Python27\\lib\\repr.py',
   'PYMODULE'),
  ('bdb',
   'Z:\\home\\abanoub\\.wine\\drive_c\\Python27\\lib\\bdb.py',
   'PYMODULE'),
  ('fnmatch',
   'Z:\\home\\abanoub\\.wine\\drive_c\\Python27\\lib\\fnmatch.py',
   'PYMODULE'),
  ('cmd',
   'Z:\\home\\abanoub\\.wine\\drive_c\\Python27\\lib\\cmd.py',
   'PYMODULE'),
  ('difflib',
   'Z:\\home\\abanoub\\.wine\\drive_c\\Python27\\lib\\difflib.py',
   'PYMODULE'),
  ('unittest',
   'Z:\\home\\abanoub\\.wine\\drive_c\\Python27\\lib\\unittest\\__init__.py',
   'PYMODULE'),
  ('unittest.signals',
   'Z:\\home\\abanoub\\.wine\\drive_c\\Python27\\lib\\unittest\\signals.py',
   'PYMODULE'),
  ('unittest.main',
   'Z:\\home\\abanoub\\.wine\\drive_c\\Python27\\lib\\unittest\\main.py',
   'PYMODULE'),
  ('getopt',
   'Z:\\home\\abanoub\\.wine\\drive_c\\Python27\\lib\\getopt.py',
   'PYMODULE'),
  ('unittest.runner',
   'Z:\\home\\abanoub\\.wine\\drive_c\\Python27\\lib\\unittest\\runner.py',
   'PYMODULE'),
  ('unittest.loader',
   'Z:\\home\\abanoub\\.wine\\drive_c\\Python27\\lib\\unittest\\loader.py',
   'PYMODULE'),
  ('unittest.suite',
   'Z:\\home\\abanoub\\.wine\\drive_c\\Python27\\lib\\unittest\\suite.py',
   'PYMODULE'),
  ('unittest.case',
   'Z:\\home\\abanoub\\.wine\\drive_c\\Python27\\lib\\unittest\\case.py',
   'PYMODULE'),
  ('unittest.result',
   'Z:\\home\\abanoub\\.wine\\drive_c\\Python27\\lib\\unittest\\result.py',
   'PYMODULE'),
  ('unittest.util',
   'Z:\\home\\abanoub\\.wine\\drive_c\\Python27\\lib\\unittest\\util.py',
   'PYMODULE'),
  ('inspect',
   'Z:\\home\\abanoub\\.wine\\drive_c\\Python27\\lib\\inspect.py',
   'PYMODULE'),
  ('tokenize',
   'Z:\\home\\abanoub\\.wine\\drive_c\\Python27\\lib\\tokenize.py',
   'PYMODULE'),
  ('token',
   'Z:\\home\\abanoub\\.wine\\drive_c\\Python27\\lib\\token.py',
   'PYMODULE'),
  ('dis',
   'Z:\\home\\abanoub\\.wine\\drive_c\\Python27\\lib\\dis.py',
   'PYMODULE'),
  ('opcode',
   'Z:\\home\\abanoub\\.wine\\drive_c\\Python27\\lib\\opcode.py',
   'PYMODULE'),
  ('__future__',
   'Z:\\home\\abanoub\\.wine\\drive_c\\Python27\\lib\\__future__.py',
   'PYMODULE'),
  ('StringIO',
   'Z:\\home\\abanoub\\.wine\\drive_c\\Python27\\lib\\StringIO.py',
   'PYMODULE'),
  ('struct',
   'Z:\\home\\abanoub\\.wine\\drive_c\\Python27\\lib\\struct.py',
   'PYMODULE'),
  ('threading',
   'Z:\\home\\abanoub\\.wine\\drive_c\\Python27\\lib\\threading.py',
   'PYMODULE'),
  ('_threading_local',
   'Z:\\home\\abanoub\\.wine\\drive_c\\Python27\\lib\\_threading_local.py',
   'PYMODULE'),
  ('traceback',
   'Z:\\home\\abanoub\\.wine\\drive_c\\Python27\\lib\\traceback.py',
   'PYMODULE'),
  ('UserDict',
   'Z:\\home\\abanoub\\.wine\\drive_c\\Python27\\lib\\UserDict.py',
   'PYMODULE'),
  ('os2emxpath',
   'Z:\\home\\abanoub\\.wine\\drive_c\\Python27\\lib\\os2emxpath.py',
   'PYMODULE'),
  ('genericpath',
   'Z:\\home\\abanoub\\.wine\\drive_c\\Python27\\lib\\genericpath.py',
   'PYMODULE'),
  ('stat',
   'Z:\\home\\abanoub\\.wine\\drive_c\\Python27\\lib\\stat.py',
   'PYMODULE'),
  ('ntpath',
   'Z:\\home\\abanoub\\.wine\\drive_c\\Python27\\lib\\ntpath.py',
   'PYMODULE'),
  ('posixpath',
   'Z:\\home\\abanoub\\.wine\\drive_c\\Python27\\lib\\posixpath.py',
   'PYMODULE'),
  ('string',
   'Z:\\home\\abanoub\\.wine\\drive_c\\Python27\\lib\\string.py',
   'PYMODULE'),
  ('copy',
   'Z:\\home\\abanoub\\.wine\\drive_c\\Python27\\lib\\copy.py',
   'PYMODULE'),
  ('copy_reg',
   'Z:\\home\\abanoub\\.wine\\drive_c\\Python27\\lib\\copy_reg.py',
   'PYMODULE'),
  ('sre_parse',
   'Z:\\home\\abanoub\\.wine\\drive_c\\Python27\\lib\\sre_parse.py',
   'PYMODULE'),
  ('sre_compile',
   'Z:\\home\\abanoub\\.wine\\drive_c\\Python27\\lib\\sre_compile.py',
   'PYMODULE'),
  ('stringprep',
   'Z:\\home\\abanoub\\.wine\\drive_c\\Python27\\lib\\stringprep.py',
   'PYMODULE'),
  ('encodings.mbcs',
   'Z:\\home\\abanoub\\.wine\\drive_c\\Python27\\lib\\encodings\\mbcs.py',
   'PYMODULE'),
  ('encodings.raw_unicode_escape',
   'Z:\\home\\abanoub\\.wine\\drive_c\\Python27\\lib\\encodings\\raw_unicode_escape.py',
   'PYMODULE'),
  ('encodings.gb18030',
   'Z:\\home\\abanoub\\.wine\\drive_c\\Python27\\lib\\encodings\\gb18030.py',
   'PYMODULE'),
  ('encodings.shift_jisx0213',
   'Z:\\home\\abanoub\\.wine\\drive_c\\Python27\\lib\\encodings\\shift_jisx0213.py',
   'PYMODULE'),
  ('encodings.ascii',
   'Z:\\home\\abanoub\\.wine\\drive_c\\Python27\\lib\\encodings\\ascii.py',
   'PYMODULE'),
  ('encodings.cp861',
   'Z:\\home\\abanoub\\.wine\\drive_c\\Python27\\lib\\encodings\\cp861.py',
   'PYMODULE'),
  ('encodings.cp860',
   'Z:\\home\\abanoub\\.wine\\drive_c\\Python27\\lib\\encodings\\cp860.py',
   'PYMODULE'),
  ('encodings.cp863',
   'Z:\\home\\abanoub\\.wine\\drive_c\\Python27\\lib\\encodings\\cp863.py',
   'PYMODULE'),
  ('encodings.cp862',
   'Z:\\home\\abanoub\\.wine\\drive_c\\Python27\\lib\\encodings\\cp862.py',
   'PYMODULE'),
  ('encodings.cp865',
   'Z:\\home\\abanoub\\.wine\\drive_c\\Python27\\lib\\encodings\\cp865.py',
   'PYMODULE'),
  ('encodings.big5hkscs',
   'Z:\\home\\abanoub\\.wine\\drive_c\\Python27\\lib\\encodings\\big5hkscs.py',
   'PYMODULE'),
  ('encodings.cp866',
   'Z:\\home\\abanoub\\.wine\\drive_c\\Python27\\lib\\encodings\\cp866.py',
   'PYMODULE'),
  ('encodings.cp869',
   'Z:\\home\\abanoub\\.wine\\drive_c\\Python27\\lib\\encodings\\cp869.py',
   'PYMODULE'),
  ('encodings.mac_latin2',
   'Z:\\home\\abanoub\\.wine\\drive_c\\Python27\\lib\\encodings\\mac_latin2.py',
   'PYMODULE'),
  ('encodings.hex_codec',
   'Z:\\home\\abanoub\\.wine\\drive_c\\Python27\\lib\\encodings\\hex_codec.py',
   'PYMODULE'),
  ('encodings.cp950',
   'Z:\\home\\abanoub\\.wine\\drive_c\\Python27\\lib\\encodings\\cp950.py',
   'PYMODULE'),
  ('encodings.quopri_codec',
   'Z:\\home\\abanoub\\.wine\\drive_c\\Python27\\lib\\encodings\\quopri_codec.py',
   'PYMODULE'),
  ('quopri',
   'Z:\\home\\abanoub\\.wine\\drive_c\\Python27\\lib\\quopri.py',
   'PYMODULE'),
  ('encodings.utf_32_be',
   'Z:\\home\\abanoub\\.wine\\drive_c\\Python27\\lib\\encodings\\utf_32_be.py',
   'PYMODULE'),
  ('encodings.string_escape',
   'Z:\\home\\abanoub\\.wine\\drive_c\\Python27\\lib\\encodings\\string_escape.py',
   'PYMODULE'),
  ('encodings.cp1250',
   'Z:\\home\\abanoub\\.wine\\drive_c\\Python27\\lib\\encodings\\cp1250.py',
   'PYMODULE'),
  ('encodings.cp1251',
   'Z:\\home\\abanoub\\.wine\\drive_c\\Python27\\lib\\encodings\\cp1251.py',
   'PYMODULE'),
  ('encodings.cp1252',
   'Z:\\home\\abanoub\\.wine\\drive_c\\Python27\\lib\\encodings\\cp1252.py',
   'PYMODULE'),
  ('encodings.cp1253',
   'Z:\\home\\abanoub\\.wine\\drive_c\\Python27\\lib\\encodings\\cp1253.py',
   'PYMODULE'),
  ('encodings.cp1254',
   'Z:\\home\\abanoub\\.wine\\drive_c\\Python27\\lib\\encodings\\cp1254.py',
   'PYMODULE'),
  ('encodings.cp1255',
   'Z:\\home\\abanoub\\.wine\\drive_c\\Python27\\lib\\encodings\\cp1255.py',
   'PYMODULE'),
  ('encodings.cp1256',
   'Z:\\home\\abanoub\\.wine\\drive_c\\Python27\\lib\\encodings\\cp1256.py',
   'PYMODULE'),
  ('encodings.cp1257',
   'Z:\\home\\abanoub\\.wine\\drive_c\\Python27\\lib\\encodings\\cp1257.py',
   'PYMODULE'),
  ('encodings.cp1258',
   'Z:\\home\\abanoub\\.wine\\drive_c\\Python27\\lib\\encodings\\cp1258.py',
   'PYMODULE'),
  ('encodings.euc_jp',
   'Z:\\home\\abanoub\\.wine\\drive_c\\Python27\\lib\\encodings\\euc_jp.py',
   'PYMODULE'),
  ('encodings.hz',
   'Z:\\home\\abanoub\\.wine\\drive_c\\Python27\\lib\\encodings\\hz.py',
   'PYMODULE'),
  ('encodings.mac_cyrillic',
   'Z:\\home\\abanoub\\.wine\\drive_c\\Python27\\lib\\encodings\\mac_cyrillic.py',
   'PYMODULE'),
  ('encodings.iso2022_kr',
   'Z:\\home\\abanoub\\.wine\\drive_c\\Python27\\lib\\encodings\\iso2022_kr.py',
   'PYMODULE'),
  ('encodings.unicode_internal',
   'Z:\\home\\abanoub\\.wine\\drive_c\\Python27\\lib\\encodings\\unicode_internal.py',
   'PYMODULE'),
  ('encodings.cp500',
   'Z:\\home\\abanoub\\.wine\\drive_c\\Python27\\lib\\encodings\\cp500.py',
   'PYMODULE'),
  ('encodings.iso8859_10',
   'Z:\\home\\abanoub\\.wine\\drive_c\\Python27\\lib\\encodings\\iso8859_10.py',
   'PYMODULE'),
  ('encodings.iso8859_11',
   'Z:\\home\\abanoub\\.wine\\drive_c\\Python27\\lib\\encodings\\iso8859_11.py',
   'PYMODULE'),
  ('encodings.iso8859_13',
   'Z:\\home\\abanoub\\.wine\\drive_c\\Python27\\lib\\encodings\\iso8859_13.py',
   'PYMODULE'),
  ('encodings.iso8859_14',
   'Z:\\home\\abanoub\\.wine\\drive_c\\Python27\\lib\\encodings\\iso8859_14.py',
   'PYMODULE'),
  ('encodings.cp424',
   'Z:\\home\\abanoub\\.wine\\drive_c\\Python27\\lib\\encodings\\cp424.py',
   'PYMODULE'),
  ('encodings.iso8859_16',
   'Z:\\home\\abanoub\\.wine\\drive_c\\Python27\\lib\\encodings\\iso8859_16.py',
   'PYMODULE'),
  ('encodings.cp1006',
   'Z:\\home\\abanoub\\.wine\\drive_c\\Python27\\lib\\encodings\\cp1006.py',
   'PYMODULE'),
  ('encodings.hp_roman8',
   'Z:\\home\\abanoub\\.wine\\drive_c\\Python27\\lib\\encodings\\hp_roman8.py',
   'PYMODULE'),
  ('encodings.charmap',
   'Z:\\home\\abanoub\\.wine\\drive_c\\Python27\\lib\\encodings\\charmap.py',
   'PYMODULE'),
  ('encodings.utf_32',
   'Z:\\home\\abanoub\\.wine\\drive_c\\Python27\\lib\\encodings\\utf_32.py',
   'PYMODULE'),
  ('encodings.latin_1',
   'Z:\\home\\abanoub\\.wine\\drive_c\\Python27\\lib\\encodings\\latin_1.py',
   'PYMODULE'),
  ('encodings.utf_16_be',
   'Z:\\home\\abanoub\\.wine\\drive_c\\Python27\\lib\\encodings\\utf_16_be.py',
   'PYMODULE'),
  ('encodings.cp737',
   'Z:\\home\\abanoub\\.wine\\drive_c\\Python27\\lib\\encodings\\cp737.py',
   'PYMODULE'),
  ('encodings.utf_16',
   'Z:\\home\\abanoub\\.wine\\drive_c\\Python27\\lib\\encodings\\utf_16.py',
   'PYMODULE'),
  ('encodings.cp437',
   'Z:\\home\\abanoub\\.wine\\drive_c\\Python27\\lib\\encodings\\cp437.py',
   'PYMODULE'),
  ('encodings.mac_roman',
   'Z:\\home\\abanoub\\.wine\\drive_c\\Python27\\lib\\encodings\\mac_roman.py',
   'PYMODULE'),
  ('encodings.mac_centeuro',
   'Z:\\home\\abanoub\\.wine\\drive_c\\Python27\\lib\\encodings\\mac_centeuro.py',
   'PYMODULE'),
  ('encodings.mac_croatian',
   'Z:\\home\\abanoub\\.wine\\drive_c\\Python27\\lib\\encodings\\mac_croatian.py',
   'PYMODULE'),
  ('encodings.punycode',
   'Z:\\home\\abanoub\\.wine\\drive_c\\Python27\\lib\\encodings\\punycode.py',
   'PYMODULE'),
  ('encodings.unicode_escape',
   'Z:\\home\\abanoub\\.wine\\drive_c\\Python27\\lib\\encodings\\unicode_escape.py',
   'PYMODULE'),
  ('encodings.bz2_codec',
   'Z:\\home\\abanoub\\.wine\\drive_c\\Python27\\lib\\encodings\\bz2_codec.py',
   'PYMODULE'),
  ('encodings.rot_13',
   'Z:\\home\\abanoub\\.wine\\drive_c\\Python27\\lib\\encodings\\rot_13.py',
   'PYMODULE'),
  ('encodings.cp874',
   'Z:\\home\\abanoub\\.wine\\drive_c\\Python27\\lib\\encodings\\cp874.py',
   'PYMODULE'),
  ('encodings.cp875',
   'Z:\\home\\abanoub\\.wine\\drive_c\\Python27\\lib\\encodings\\cp875.py',
   'PYMODULE'),
  ('encodings.cp720',
   'Z:\\home\\abanoub\\.wine\\drive_c\\Python27\\lib\\encodings\\cp720.py',
   'PYMODULE'),
  ('encodings.tis_620',
   'Z:\\home\\abanoub\\.wine\\drive_c\\Python27\\lib\\encodings\\tis_620.py',
   'PYMODULE'),
  ('encodings.zlib_codec',
   'Z:\\home\\abanoub\\.wine\\drive_c\\Python27\\lib\\encodings\\zlib_codec.py',
   'PYMODULE'),
  ('encodings.iso2022_jp_2004',
   'Z:\\home\\abanoub\\.wine\\drive_c\\Python27\\lib\\encodings\\iso2022_jp_2004.py',
   'PYMODULE'),
  ('encodings.euc_jisx0213',
   'Z:\\home\\abanoub\\.wine\\drive_c\\Python27\\lib\\encodings\\euc_jisx0213.py',
   'PYMODULE'),
  ('encodings.ptcp154',
   'Z:\\home\\abanoub\\.wine\\drive_c\\Python27\\lib\\encodings\\ptcp154.py',
   'PYMODULE'),
  ('encodings.uu_codec',
   'Z:\\home\\abanoub\\.wine\\drive_c\\Python27\\lib\\encodings\\uu_codec.py',
   'PYMODULE'),
  ('encodings.utf_16_le',
   'Z:\\home\\abanoub\\.wine\\drive_c\\Python27\\lib\\encodings\\utf_16_le.py',
   'PYMODULE'),
  ('encodings.iso2022_jp_2',
   'Z:\\home\\abanoub\\.wine\\drive_c\\Python27\\lib\\encodings\\iso2022_jp_2.py',
   'PYMODULE'),
  ('encodings.iso2022_jp_3',
   'Z:\\home\\abanoub\\.wine\\drive_c\\Python27\\lib\\encodings\\iso2022_jp_3.py',
   'PYMODULE'),
  ('encodings.iso2022_jp_1',
   'Z:\\home\\abanoub\\.wine\\drive_c\\Python27\\lib\\encodings\\iso2022_jp_1.py',
   'PYMODULE'),
  ('encodings.mac_romanian',
   'Z:\\home\\abanoub\\.wine\\drive_c\\Python27\\lib\\encodings\\mac_romanian.py',
   'PYMODULE'),
  ('encodings.cp1026',
   'Z:\\home\\abanoub\\.wine\\drive_c\\Python27\\lib\\encodings\\cp1026.py',
   'PYMODULE'),
  ('encodings.mac_farsi',
   'Z:\\home\\abanoub\\.wine\\drive_c\\Python27\\lib\\encodings\\mac_farsi.py',
   'PYMODULE'),
  ('encodings.undefined',
   'Z:\\home\\abanoub\\.wine\\drive_c\\Python27\\lib\\encodings\\undefined.py',
   'PYMODULE'),
  ('encodings.mac_turkish',
   'Z:\\home\\abanoub\\.wine\\drive_c\\Python27\\lib\\encodings\\mac_turkish.py',
   'PYMODULE'),
  ('encodings.koi8_u',
   'Z:\\home\\abanoub\\.wine\\drive_c\\Python27\\lib\\encodings\\koi8_u.py',
   'PYMODULE'),
  ('encodings.koi8_r',
   'Z:\\home\\abanoub\\.wine\\drive_c\\Python27\\lib\\encodings\\koi8_r.py',
   'PYMODULE'),
  ('encodings.utf_8_sig',
   'Z:\\home\\abanoub\\.wine\\drive_c\\Python27\\lib\\encodings\\utf_8_sig.py',
   'PYMODULE'),
  ('encodings.iso2022_jp',
   'Z:\\home\\abanoub\\.wine\\drive_c\\Python27\\lib\\encodings\\iso2022_jp.py',
   'PYMODULE'),
  ('encodings.palmos',
   'Z:\\home\\abanoub\\.wine\\drive_c\\Python27\\lib\\encodings\\palmos.py',
   'PYMODULE'),
  ('encodings.mac_greek',
   'Z:\\home\\abanoub\\.wine\\drive_c\\Python27\\lib\\encodings\\mac_greek.py',
   'PYMODULE'),
  ('encodings.shift_jis_2004',
   'Z:\\home\\abanoub\\.wine\\drive_c\\Python27\\lib\\encodings\\shift_jis_2004.py',
   'PYMODULE'),
  ('encodings.gbk',
   'Z:\\home\\abanoub\\.wine\\drive_c\\Python27\\lib\\encodings\\gbk.py',
   'PYMODULE'),
  ('encodings.mac_iceland',
   'Z:\\home\\abanoub\\.wine\\drive_c\\Python27\\lib\\encodings\\mac_iceland.py',
   'PYMODULE'),
  ('encodings.cp858',
   'Z:\\home\\abanoub\\.wine\\drive_c\\Python27\\lib\\encodings\\cp858.py',
   'PYMODULE'),
  ('encodings.cp850',
   'Z:\\home\\abanoub\\.wine\\drive_c\\Python27\\lib\\encodings\\cp850.py',
   'PYMODULE'),
  ('encodings.cp852',
   'Z:\\home\\abanoub\\.wine\\drive_c\\Python27\\lib\\encodings\\cp852.py',
   'PYMODULE'),
  ('encodings.cp855',
   'Z:\\home\\abanoub\\.wine\\drive_c\\Python27\\lib\\encodings\\cp855.py',
   'PYMODULE'),
  ('encodings.cp856',
   'Z:\\home\\abanoub\\.wine\\drive_c\\Python27\\lib\\encodings\\cp856.py',
   'PYMODULE'),
  ('encodings.cp857',
   'Z:\\home\\abanoub\\.wine\\drive_c\\Python27\\lib\\encodings\\cp857.py',
   'PYMODULE'),
  ('encodings.iso8859_4',
   'Z:\\home\\abanoub\\.wine\\drive_c\\Python27\\lib\\encodings\\iso8859_4.py',
   'PYMODULE'),
  ('encodings.iso8859_5',
   'Z:\\home\\abanoub\\.wine\\drive_c\\Python27\\lib\\encodings\\iso8859_5.py',
   'PYMODULE'),
  ('encodings.iso8859_6',
   'Z:\\home\\abanoub\\.wine\\drive_c\\Python27\\lib\\encodings\\iso8859_6.py',
   'PYMODULE'),
  ('encodings.iso8859_7',
   'Z:\\home\\abanoub\\.wine\\drive_c\\Python27\\lib\\encodings\\iso8859_7.py',
   'PYMODULE'),
  ('encodings.iso8859_1',
   'Z:\\home\\abanoub\\.wine\\drive_c\\Python27\\lib\\encodings\\iso8859_1.py',
   'PYMODULE'),
  ('encodings.iso8859_2',
   'Z:\\home\\abanoub\\.wine\\drive_c\\Python27\\lib\\encodings\\iso8859_2.py',
   'PYMODULE'),
  ('encodings.iso8859_3',
   'Z:\\home\\abanoub\\.wine\\drive_c\\Python27\\lib\\encodings\\iso8859_3.py',
   'PYMODULE'),
  ('encodings.gb2312',
   'Z:\\home\\abanoub\\.wine\\drive_c\\Python27\\lib\\encodings\\gb2312.py',
   'PYMODULE'),
  ('encodings.iso8859_8',
   'Z:\\home\\abanoub\\.wine\\drive_c\\Python27\\lib\\encodings\\iso8859_8.py',
   'PYMODULE'),
  ('encodings.iso8859_9',
   'Z:\\home\\abanoub\\.wine\\drive_c\\Python27\\lib\\encodings\\iso8859_9.py',
   'PYMODULE'),
  ('encodings.cp949',
   'Z:\\home\\abanoub\\.wine\\drive_c\\Python27\\lib\\encodings\\cp949.py',
   'PYMODULE'),
  ('encodings.cp864',
   'Z:\\home\\abanoub\\.wine\\drive_c\\Python27\\lib\\encodings\\cp864.py',
   'PYMODULE'),
  ('encodings.base64_codec',
   'Z:\\home\\abanoub\\.wine\\drive_c\\Python27\\lib\\encodings\\base64_codec.py',
   'PYMODULE'),
  ('base64',
   'Z:\\home\\abanoub\\.wine\\drive_c\\Python27\\lib\\base64.py',
   'PYMODULE'),
  ('encodings.cp037',
   'Z:\\home\\abanoub\\.wine\\drive_c\\Python27\\lib\\encodings\\cp037.py',
   'PYMODULE'),
  ('encodings.utf_8',
   'Z:\\home\\abanoub\\.wine\\drive_c\\Python27\\lib\\encodings\\utf_8.py',
   'PYMODULE'),
  ('encodings.mac_arabic',
   'Z:\\home\\abanoub\\.wine\\drive_c\\Python27\\lib\\encodings\\mac_arabic.py',
   'PYMODULE'),
  ('encodings.euc_kr',
   'Z:\\home\\abanoub\\.wine\\drive_c\\Python27\\lib\\encodings\\euc_kr.py',
   'PYMODULE'),
  ('encodings.utf_7',
   'Z:\\home\\abanoub\\.wine\\drive_c\\Python27\\lib\\encodings\\utf_7.py',
   'PYMODULE'),
  ('encodings.shift_jis',
   'Z:\\home\\abanoub\\.wine\\drive_c\\Python27\\lib\\encodings\\shift_jis.py',
   'PYMODULE'),
  ('encodings.utf_32_le',
   'Z:\\home\\abanoub\\.wine\\drive_c\\Python27\\lib\\encodings\\utf_32_le.py',
   'PYMODULE'),
  ('encodings.euc_jis_2004',
   'Z:\\home\\abanoub\\.wine\\drive_c\\Python27\\lib\\encodings\\euc_jis_2004.py',
   'PYMODULE'),
  ('encodings.cp775',
   'Z:\\home\\abanoub\\.wine\\drive_c\\Python27\\lib\\encodings\\cp775.py',
   'PYMODULE'),
  ('encodings.cp1140',
   'Z:\\home\\abanoub\\.wine\\drive_c\\Python27\\lib\\encodings\\cp1140.py',
   'PYMODULE'),
  ('encodings.big5',
   'Z:\\home\\abanoub\\.wine\\drive_c\\Python27\\lib\\encodings\\big5.py',
   'PYMODULE'),
  ('encodings.iso8859_15',
   'Z:\\home\\abanoub\\.wine\\drive_c\\Python27\\lib\\encodings\\iso8859_15.py',
   'PYMODULE'),
  ('encodings.iso2022_jp_ext',
   'Z:\\home\\abanoub\\.wine\\drive_c\\Python27\\lib\\encodings\\iso2022_jp_ext.py',
   'PYMODULE'),
  ('encodings.johab',
   'Z:\\home\\abanoub\\.wine\\drive_c\\Python27\\lib\\encodings\\johab.py',
   'PYMODULE'),
  ('encodings.cp932',
   'Z:\\home\\abanoub\\.wine\\drive_c\\Python27\\lib\\encodings\\cp932.py',
   'PYMODULE'),
  ('encodings.aliases',
   'Z:\\home\\abanoub\\.wine\\drive_c\\Python27\\lib\\encodings\\aliases.py',
   'PYMODULE'),
  ('email.encoders',
   'Z:\\home\\abanoub\\.wine\\drive_c\\Python27\\lib\\email\\encoders.py',
   'PYMODULE'),
  ('email',
   'Z:\\home\\abanoub\\.wine\\drive_c\\Python27\\lib\\email\\__init__.py',
   'PYMODULE'),
  ('email.mime',
   'Z:\\home\\abanoub\\.wine\\drive_c\\Python27\\lib\\email\\mime\\__init__.py',
   'PYMODULE'),
  ('email.parser',
   'Z:\\home\\abanoub\\.wine\\drive_c\\Python27\\lib\\email\\parser.py',
   'PYMODULE'),
  ('email.feedparser',
   'Z:\\home\\abanoub\\.wine\\drive_c\\Python27\\lib\\email\\feedparser.py',
   'PYMODULE'),
  ('email.message',
   'Z:\\home\\abanoub\\.wine\\drive_c\\Python27\\lib\\email\\message.py',
   'PYMODULE'),
  ('email.iterators',
   'Z:\\home\\abanoub\\.wine\\drive_c\\Python27\\lib\\email\\iterators.py',
   'PYMODULE'),
  ('email.generator',
   'Z:\\home\\abanoub\\.wine\\drive_c\\Python27\\lib\\email\\generator.py',
   'PYMODULE'),
  ('email.header',
   'Z:\\home\\abanoub\\.wine\\drive_c\\Python27\\lib\\email\\header.py',
   'PYMODULE'),
  ('email.base64mime',
   'Z:\\home\\abanoub\\.wine\\drive_c\\Python27\\lib\\email\\base64mime.py',
   'PYMODULE'),
  ('email.quoprimime',
   'Z:\\home\\abanoub\\.wine\\drive_c\\Python27\\lib\\email\\quoprimime.py',
   'PYMODULE'),
  ('email.utils',
   'Z:\\home\\abanoub\\.wine\\drive_c\\Python27\\lib\\email\\utils.py',
   'PYMODULE'),
  ('email._parseaddr',
   'Z:\\home\\abanoub\\.wine\\drive_c\\Python27\\lib\\email\\_parseaddr.py',
   'PYMODULE'),
  ('urllib',
   'Z:\\home\\abanoub\\.wine\\drive_c\\Python27\\lib\\urllib.py',
   'PYMODULE'),
  ('getpass',
   'Z:\\home\\abanoub\\.wine\\drive_c\\Python27\\lib\\getpass.py',
   'PYMODULE'),
  ('ftplib',
   'Z:\\home\\abanoub\\.wine\\drive_c\\Python27\\lib\\ftplib.py',
   'PYMODULE'),
  ('mimetools',
   'Z:\\home\\abanoub\\.wine\\drive_c\\Python27\\lib\\mimetools.py',
   'PYMODULE'),
  ('rfc822',
   'Z:\\home\\abanoub\\.wine\\drive_c\\Python27\\lib\\rfc822.py',
   'PYMODULE'),
  ('mimetypes',
   'Z:\\home\\abanoub\\.wine\\drive_c\\Python27\\lib\\mimetypes.py',
   'PYMODULE'),
  ('httplib',
   'Z:\\home\\abanoub\\.wine\\drive_c\\Python27\\lib\\httplib.py',
   'PYMODULE'),
  ('ssl',
   'Z:\\home\\abanoub\\.wine\\drive_c\\Python27\\lib\\ssl.py',
   'PYMODULE'),
  ('contextlib',
   'Z:\\home\\abanoub\\.wine\\drive_c\\Python27\\lib\\contextlib.py',
   'PYMODULE'),
  ('nturl2path',
   'Z:\\home\\abanoub\\.wine\\drive_c\\Python27\\lib\\nturl2path.py',
   'PYMODULE'),
  ('urlparse',
   'Z:\\home\\abanoub\\.wine\\drive_c\\Python27\\lib\\urlparse.py',
   'PYMODULE'),
  ('socket',
   'Z:\\home\\abanoub\\.wine\\drive_c\\Python27\\lib\\socket.py',
   'PYMODULE'),
  ('email.charset',
   'Z:\\home\\abanoub\\.wine\\drive_c\\Python27\\lib\\email\\charset.py',
   'PYMODULE'),
  ('uu',
   'Z:\\home\\abanoub\\.wine\\drive_c\\Python27\\lib\\uu.py',
   'PYMODULE'),
  ('email.errors',
   'Z:\\home\\abanoub\\.wine\\drive_c\\Python27\\lib\\email\\errors.py',
   'PYMODULE'),
  ('email.mime.base',
   'Z:\\home\\abanoub\\.wine\\drive_c\\Python27\\lib\\email\\mime\\base.py',
   'PYMODULE'),
  ('email.mime.multipart',
   'Z:\\home\\abanoub\\.wine\\drive_c\\Python27\\lib\\email\\mime\\multipart.py',
   'PYMODULE'),
  ('email.mime.text',
   'Z:\\home\\abanoub\\.wine\\drive_c\\Python27\\lib\\email\\mime\\text.py',
   'PYMODULE'),
  ('email.mime.nonmultipart',
   'Z:\\home\\abanoub\\.wine\\drive_c\\Python27\\lib\\email\\mime\\nonmultipart.py',
   'PYMODULE'),
  ('smtplib',
   'Z:\\home\\abanoub\\.wine\\drive_c\\Python27\\lib\\smtplib.py',
   'PYMODULE'),
  ('hmac',
   'Z:\\home\\abanoub\\.wine\\drive_c\\Python27\\lib\\hmac.py',
   'PYMODULE'),
  ('pynput.keyboard',
   'Z:\\home\\abanoub\\.wine\\drive_c\\Python27\\lib\\site-packages\\pynput\\keyboard\\__init__.py',
   'PYMODULE'),
  ('pynput.keyboard._xorg',
   'Z:\\home\\abanoub\\.wine\\drive_c\\Python27\\lib\\site-packages\\pynput\\keyboard\\_xorg.py',
   'PYMODULE'),
  ('pynput._util.xorg_keysyms',
   'Z:\\home\\abanoub\\.wine\\drive_c\\Python27\\lib\\site-packages\\pynput\\_util\\xorg_keysyms.py',
   'PYMODULE'),
  ('pynput._util.xorg',
   'Z:\\home\\abanoub\\.wine\\drive_c\\Python27\\lib\\site-packages\\pynput\\_util\\xorg.py',
   'PYMODULE'),
  ('enum',
   'Z:\\home\\abanoub\\.wine\\drive_c\\Python27\\lib\\site-packages\\enum\\__init__.py',
   'PYMODULE'),
  ('pynput.keyboard._win32',
   'Z:\\home\\abanoub\\.wine\\drive_c\\Python27\\lib\\site-packages\\pynput\\keyboard\\_win32.py',
   'PYMODULE'),
  ('pynput._util.win32',
   'Z:\\home\\abanoub\\.wine\\drive_c\\Python27\\lib\\site-packages\\pynput\\_util\\win32.py',
   'PYMODULE'),
  ('pynput._util.win32_vks',
   'Z:\\home\\abanoub\\.wine\\drive_c\\Python27\\lib\\site-packages\\pynput\\_util\\win32_vks.py',
   'PYMODULE'),
  ('ctypes.wintypes',
   'Z:\\home\\abanoub\\.wine\\drive_c\\Python27\\lib\\ctypes\\wintypes.py',
   'PYMODULE'),
  ('six',
   'Z:\\home\\abanoub\\.wine\\drive_c\\Python27\\lib\\site-packages\\six.py',
   'PYMODULE'),
  ('ctypes',
   'Z:\\home\\abanoub\\.wine\\drive_c\\Python27\\lib\\ctypes\\__init__.py',
   'PYMODULE'),
  ('ctypes._endian',
   'Z:\\home\\abanoub\\.wine\\drive_c\\Python27\\lib\\ctypes\\_endian.py',
   'PYMODULE'),
  ('pynput.keyboard._darwin',
   'Z:\\home\\abanoub\\.wine\\drive_c\\Python27\\lib\\site-packages\\pynput\\keyboard\\_darwin.py',
   'PYMODULE'),
  ('pynput._util.darwin',
   'Z:\\home\\abanoub\\.wine\\drive_c\\Python27\\lib\\site-packages\\pynput\\_util\\darwin.py',
   'PYMODULE'),
  ('ctypes.util',
   'Z:\\home\\abanoub\\.wine\\drive_c\\Python27\\lib\\ctypes\\util.py',
   'PYMODULE'),
  ('ctypes.macholib.dyld',
   'Z:\\home\\abanoub\\.wine\\drive_c\\Python27\\lib\\ctypes\\macholib\\dyld.py',
   'PYMODULE'),
  ('ctypes.macholib',
   'Z:\\home\\abanoub\\.wine\\drive_c\\Python27\\lib\\ctypes\\macholib\\__init__.py',
   'PYMODULE'),
  ('ctypes.macholib.dylib',
   'Z:\\home\\abanoub\\.wine\\drive_c\\Python27\\lib\\ctypes\\macholib\\dylib.py',
   'PYMODULE'),
  ('ctypes.macholib.framework',
   'Z:\\home\\abanoub\\.wine\\drive_c\\Python27\\lib\\ctypes\\macholib\\framework.py',
   'PYMODULE'),
  ('pynput._util',
   'Z:\\home\\abanoub\\.wine\\drive_c\\Python27\\lib\\site-packages\\pynput\\_util\\__init__.py',
   'PYMODULE'),
  ('Queue',
   'Z:\\home\\abanoub\\.wine\\drive_c\\Python27\\lib\\Queue.py',
   'PYMODULE'),
  ('dummy_threading',
   'Z:\\home\\abanoub\\.wine\\drive_c\\Python27\\lib\\dummy_threading.py',
   'PYMODULE'),
  ('pynput.keyboard._base',
   'Z:\\home\\abanoub\\.wine\\drive_c\\Python27\\lib\\site-packages\\pynput\\keyboard\\_base.py',
   'PYMODULE'),
  ('pynput',
   'Z:\\home\\abanoub\\.wine\\drive_c\\Python27\\lib\\site-packages\\pynput\\__init__.py',
   'PYMODULE'),
  ('pynput.mouse',
   'Z:\\home\\abanoub\\.wine\\drive_c\\Python27\\lib\\site-packages\\pynput\\mouse\\__init__.py',
   'PYMODULE'),
  ('pynput.mouse._xorg',
   'Z:\\home\\abanoub\\.wine\\drive_c\\Python27\\lib\\site-packages\\pynput\\mouse\\_xorg.py',
   'PYMODULE'),
  ('pynput.mouse._win32',
   'Z:\\home\\abanoub\\.wine\\drive_c\\Python27\\lib\\site-packages\\pynput\\mouse\\_win32.py',
   'PYMODULE'),
  ('pynput.mouse._darwin',
   'Z:\\home\\abanoub\\.wine\\drive_c\\Python27\\lib\\site-packages\\pynput\\mouse\\_darwin.py',
   'PYMODULE'),
  ('pynput.mouse._base',
   'Z:\\home\\abanoub\\.wine\\drive_c\\Python27\\lib\\site-packages\\pynput\\mouse\\_base.py',
   'PYMODULE')])
